[{
	"id": 1,
	"iban": "FI13 6947 0760 3161 08",
	"amount": "100,55",
	"description": "Compra en el Alcampo"
}, {
	"id": 2,
	"iban": "FI13 6947 0760 3161 08",
	"amount": "-75,19",
	"description": "Movistar"
}, {
	"id": 3,
	"iban": "AE48 4956 2140 4522 2019 762",
	"amount": "-712,31",
	"description": "Mutua Madrileña"
}, {
	"id": 4,
	"iban": "LT48 5265 9767 8688 5344",
	"amount": "14,50",
	"description": "Bar El Rulo"
}, {
	"id": 5,
	"iban": "LT48 5265 9767 8688 5344",
	"amount": "-300",
	"description": "Prestamo coche"
}, {
	"id": 6,
	"iban": "LT48 5265 9767 8688 5344",
	"amount": "-43,21",
	"description": "Luz"
}, {
	"id": 7,
	"iban": "FI13 6947 0760 3161 08",
	"amount": "1623,76",
	"description": "Nomina"
}, {
	"iban": "AE48 4956 2140 4522 2019 762",
	"description": "Gasolina",
	"amount": "-75,32",
	"type": "Gasto"
}]
